%!PS-Adobe-3.0
%%Creator: graphviz version 2.36.0 (20140111.2315)
%%Title: TST
%%Pages: (atend)
%%BoundingBox: (atend)
%%EndComments
save
%%BeginProlog
/DotDict 200 dict def
DotDict begin

/setupLatin1 {
mark
/EncodingVector 256 array def
 EncodingVector 0

ISOLatin1Encoding 0 255 getinterval putinterval
EncodingVector 45 /hyphen put

% Set up ISO Latin 1 character encoding
/starnetISO {
        dup dup findfont dup length dict begin
        { 1 index /FID ne { def }{ pop pop } ifelse
        } forall
        /Encoding EncodingVector def
        currentdict end definefont
} def
/Times-Roman starnetISO def
/Times-Italic starnetISO def
/Times-Bold starnetISO def
/Times-BoldItalic starnetISO def
/Helvetica starnetISO def
/Helvetica-Oblique starnetISO def
/Helvetica-Bold starnetISO def
/Helvetica-BoldOblique starnetISO def
/Courier starnetISO def
/Courier-Oblique starnetISO def
/Courier-Bold starnetISO def
/Courier-BoldOblique starnetISO def
cleartomark
} bind def

%%BeginResource: procset graphviz 0 0
/coord-font-family /Times-Roman def
/default-font-family /Times-Roman def
/coordfont coord-font-family findfont 8 scalefont def

/InvScaleFactor 1.0 def
/set_scale {
       dup 1 exch div /InvScaleFactor exch def
       scale
} bind def

% styles
/solid { [] 0 setdash } bind def
/dashed { [9 InvScaleFactor mul dup ] 0 setdash } bind def
/dotted { [1 InvScaleFactor mul 6 InvScaleFactor mul] 0 setdash } bind def
/invis {/fill {newpath} def /stroke {newpath} def /show {pop newpath} def} bind def
/bold { 2 setlinewidth } bind def
/filled { } bind def
/unfilled { } bind def
/rounded { } bind def
/diagonals { } bind def
/tapered { } bind def

% hooks for setting color 
/nodecolor { sethsbcolor } bind def
/edgecolor { sethsbcolor } bind def
/graphcolor { sethsbcolor } bind def
/nopcolor {pop pop pop} bind def

/beginpage {	% i j npages
	/npages exch def
	/j exch def
	/i exch def
	/str 10 string def
	npages 1 gt {
		gsave
			coordfont setfont
			0 0 moveto
			(\() show i str cvs show (,) show j str cvs show (\)) show
		grestore
	} if
} bind def

/set_font {
	findfont exch
	scalefont setfont
} def

% draw text fitted to its expected width
/alignedtext {			% width text
	/text exch def
	/width exch def
	gsave
		width 0 gt {
			[] 0 setdash
			text stringwidth pop width exch sub text length div 0 text ashow
		} if
	grestore
} def

/boxprim {				% xcorner ycorner xsize ysize
		4 2 roll
		moveto
		2 copy
		exch 0 rlineto
		0 exch rlineto
		pop neg 0 rlineto
		closepath
} bind def

/ellipse_path {
	/ry exch def
	/rx exch def
	/y exch def
	/x exch def
	matrix currentmatrix
	newpath
	x y translate
	rx ry scale
	0 0 1 0 360 arc
	setmatrix
} bind def

/endpage { showpage } bind def
/showpage { } def

/layercolorseq
	[	% layer color sequence - darkest to lightest
		[0 0 0]
		[.2 .8 .8]
		[.4 .8 .8]
		[.6 .8 .8]
		[.8 .8 .8]
	]
def

/layerlen layercolorseq length def

/setlayer {/maxlayer exch def /curlayer exch def
	layercolorseq curlayer 1 sub layerlen mod get
	aload pop sethsbcolor
	/nodecolor {nopcolor} def
	/edgecolor {nopcolor} def
	/graphcolor {nopcolor} def
} bind def

/onlayer { curlayer ne {invis} if } def

/onlayers {
	/myupper exch def
	/mylower exch def
	curlayer mylower lt
	curlayer myupper gt
	or
	{invis} if
} def

/curlayer 0 def

%%EndResource
%%EndProlog
%%BeginSetup
14 default-font-family set_font
1 setmiterlimit
% /arrowlength 10 def
% /arrowwidth 5 def

% make sure pdfmark is harmless for PS-interpreters other than Distiller
/pdfmark where {pop} {userdict /pdfmark /cleartomark load put} ifelse
% make '<<' and '>>' safe on PS Level 1 devices
/languagelevel where {pop languagelevel}{1} ifelse
2 lt {
    userdict (<<) cvn ([) cvn load put
    userdict (>>) cvn ([) cvn load put
} if

%%EndSetup
setupLatin1
%%Page: 1 1
%%PageBoundingBox: 36 36 481 336
%%PageOrientation: Portrait
0 0 1 beginpage
gsave
36 36 445 300 boxprim clip newpath
1 1 set_scale 0 rotate 40 40 translate
% 0
gsave
1 setlinewidth
0 0 0 nodecolor
272 274 27 18 ellipse_path stroke
0 0 0 nodecolor
14 /Arial set_font
267.5 270.3 moveto 9 (0) alignedtext
grestore
% 3
gsave
1 setlinewidth
0 0 0 nodecolor
142 202 27 18 ellipse_path stroke
0 0 0 nodecolor
14 /Arial set_font
137.5 198.3 moveto 9 (1) alignedtext
grestore
% 0->3
gsave
1 setlinewidth
0 0 0 edgecolor
newpath 251.69 262.06 moveto
230.16 250.47 195.95 232.05 171.46 218.86 curveto
stroke
0 0 0 edgecolor
newpath 173.06 215.75 moveto
162.6 214.09 lineto
169.74 221.91 lineto
closepath fill
1 setlinewidth
solid
0 0 0 edgecolor
newpath 173.06 215.75 moveto
162.6 214.09 lineto
169.74 221.91 lineto
closepath stroke
grestore
% 1
gsave
1 setlinewidth
0 0 0 nodecolor
272 202 27 18 ellipse_path stroke
0 0 0 nodecolor
14 /Arial set_font
267.5 198.3 moveto 9 (0) alignedtext
grestore
% 0->1
gsave
1 setlinewidth
0 0 0 edgecolor
newpath 272 255.7 moveto
272 247.98 272 238.71 272 230.11 curveto
stroke
0 0 0 edgecolor
newpath 275.5 230.1 moveto
272 220.1 lineto
268.5 230.1 lineto
closepath fill
1 setlinewidth
solid
0 0 0 edgecolor
newpath 275.5 230.1 moveto
272 220.1 lineto
268.5 230.1 lineto
closepath stroke
grestore
% 8
gsave
1 setlinewidth
0 0 0 nodecolor
389 202 27 18 ellipse_path stroke
0 0 0 nodecolor
14 /Arial set_font
384.5 198.3 moveto 9 (2) alignedtext
grestore
% 0->8
gsave
1 setlinewidth
0 0 0 edgecolor
newpath 291.58 261.28 moveto
310.48 249.98 339.29 232.74 360.69 219.94 curveto
stroke
0 0 0 edgecolor
newpath 362.57 222.89 moveto
369.35 214.75 lineto
358.97 216.89 lineto
closepath fill
1 setlinewidth
solid
0 0 0 edgecolor
newpath 362.57 222.89 moveto
369.35 214.75 lineto
358.97 216.89 lineto
closepath stroke
grestore
% null0
gsave
0 0 0 nodecolor
59 130 1.8 1.8 ellipse_path fill
1 setlinewidth
filled
0 0 0 nodecolor
59 130 1.8 1.8 ellipse_path stroke
grestore
% 3->null0
gsave
1 setlinewidth
0 0 0 edgecolor
newpath 122.46 189.39 moveto
107.06 179.62 85.64 164.61 70 148 curveto
67.96 145.84 66.07 143.25 64.45 140.75 curveto
stroke
0 0 0 edgecolor
newpath 67.47 138.97 moveto
59.49 132.01 lineto
61.38 142.43 lineto
closepath fill
1 setlinewidth
solid
0 0 0 edgecolor
newpath 67.47 138.97 moveto
59.49 132.01 lineto
61.38 142.43 lineto
closepath stroke
grestore
% 4
gsave
1 setlinewidth
0 0 0 nodecolor
106 130 27 18 ellipse_path stroke
0 0 0 nodecolor
14 /Arial set_font
101.5 126.3 moveto 9 (0) alignedtext
grestore
% 3->4
gsave
1 setlinewidth
0 0 0 edgecolor
newpath 133.65 184.76 moveto
129.29 176.28 123.85 165.71 118.96 156.2 curveto
stroke
0 0 0 edgecolor
newpath 121.99 154.44 moveto
114.3 147.15 lineto
115.77 157.64 lineto
closepath fill
1 setlinewidth
solid
0 0 0 edgecolor
newpath 121.99 154.44 moveto
114.3 147.15 lineto
115.77 157.64 lineto
closepath stroke
grestore
% 6
gsave
1 setlinewidth
0 0 0 nodecolor
178 130 27 18 ellipse_path stroke
0 0 0 nodecolor
14 /Arial set_font
173.5 126.3 moveto 9 (2) alignedtext
grestore
% 3->6
gsave
1 setlinewidth
0 0 0 edgecolor
newpath 150.35 184.76 moveto
154.71 176.28 160.15 165.71 165.04 156.2 curveto
stroke
0 0 0 edgecolor
newpath 168.23 157.64 moveto
169.7 147.15 lineto
162.01 154.44 lineto
closepath fill
1 setlinewidth
solid
0 0 0 edgecolor
newpath 168.23 157.64 moveto
169.7 147.15 lineto
162.01 154.44 lineto
closepath stroke
grestore
% null1
gsave
0 0 0 nodecolor
1 58 1.8 1.8 ellipse_path fill
1 setlinewidth
filled
0 0 0 nodecolor
1 58 1.8 1.8 ellipse_path stroke
grestore
% 4->null1
gsave
1 setlinewidth
0 0 0 edgecolor
newpath 84.8 118.56 moveto
60.8 106.47 23.53 86.85 12 76 curveto
9.84 73.96 7.9 71.42 6.28 68.93 curveto
stroke
0 0 0 edgecolor
newpath 9.3 67.15 moveto
1.45 60.04 lineto
3.15 70.5 lineto
closepath fill
1 setlinewidth
solid
0 0 0 edgecolor
newpath 9.3 67.15 moveto
1.45 60.04 lineto
3.15 70.5 lineto
closepath stroke
grestore
% 5
gsave
1 setlinewidth
0 0 0 nodecolor
48 58 27 18 ellipse_path stroke
0 0 0 nodecolor
14 /Arial set_font
43.5 54.3 moveto 9 (0) alignedtext
grestore
% 4->5
gsave
1 setlinewidth
0 0 0 edgecolor
newpath 93.41 113.81 moveto
85.74 104.55 75.77 92.52 67.14 82.09 curveto
stroke
0 0 0 edgecolor
newpath 69.64 79.63 moveto
60.56 74.16 lineto
64.25 84.09 lineto
closepath fill
1 setlinewidth
solid
0 0 0 edgecolor
newpath 69.64 79.63 moveto
60.56 74.16 lineto
64.25 84.09 lineto
closepath stroke
grestore
% 7
gsave
1 setlinewidth
0 0 0 nodecolor
120 58 27 18 ellipse_path stroke
0 0 0 nodecolor
14 /Arial set_font
115.5 54.3 moveto 9 (2) alignedtext
grestore
% 4->7
gsave
1 setlinewidth
0 0 0 edgecolor
newpath 109.39 112.05 moveto
110.93 104.35 112.79 95.03 114.53 86.36 curveto
stroke
0 0 0 edgecolor
newpath 118.02 86.77 moveto
116.54 76.28 lineto
111.15 85.39 lineto
closepath fill
1 setlinewidth
solid
0 0 0 edgecolor
newpath 118.02 86.77 moveto
116.54 76.28 lineto
111.15 85.39 lineto
closepath stroke
grestore
% null2
gsave
0 0 0 nodecolor
26 2 1.8 1.8 ellipse_path fill
1 setlinewidth
filled
0 0 0 nodecolor
26 2 1.8 1.8 ellipse_path stroke
grestore
% 5->null2
gsave
1 setlinewidth
0 0 0 edgecolor
newpath 41.28 40.5 moveto
37.7 31.71 33.4 21.16 30.27 13.49 curveto
stroke
0 0 0 edgecolor
newpath 33.41 11.9 moveto
26.39 3.96 lineto
26.92 14.54 lineto
closepath fill
1 setlinewidth
solid
0 0 0 edgecolor
newpath 33.41 11.9 moveto
26.39 3.96 lineto
26.92 14.54 lineto
closepath stroke
grestore
% null3
gsave
0 0 0 nodecolor
48 2 1.8 1.8 ellipse_path fill
1 setlinewidth
filled
0 0 0 nodecolor
48 2 1.8 1.8 ellipse_path stroke
grestore
% 5->null3
gsave
1 setlinewidth
0 0 0 edgecolor
newpath 48 39.91 moveto
48 31.48 48 21.54 48 14.11 curveto
stroke
0 0 0 edgecolor
newpath 51.5 13.94 moveto
48 3.94 lineto
44.5 13.94 lineto
closepath fill
1 setlinewidth
solid
0 0 0 edgecolor
newpath 51.5 13.94 moveto
48 3.94 lineto
44.5 13.94 lineto
closepath stroke
grestore
% null4
gsave
0 0 0 nodecolor
70 2 1.8 1.8 ellipse_path fill
1 setlinewidth
filled
0 0 0 nodecolor
70 2 1.8 1.8 ellipse_path stroke
grestore
% 5->null4
gsave
1 setlinewidth
0 0 0 edgecolor
newpath 54.72 40.5 moveto
58.3 31.71 62.6 21.16 65.73 13.49 curveto
stroke
0 0 0 edgecolor
newpath 69.08 14.54 moveto
69.61 3.96 lineto
62.59 11.9 lineto
closepath fill
1 setlinewidth
solid
0 0 0 edgecolor
newpath 69.08 14.54 moveto
69.61 3.96 lineto
62.59 11.9 lineto
closepath stroke
grestore
% null5
gsave
0 0 0 nodecolor
98 2 1.8 1.8 ellipse_path fill
1 setlinewidth
filled
0 0 0 nodecolor
98 2 1.8 1.8 ellipse_path stroke
grestore
% 7->null5
gsave
1 setlinewidth
0 0 0 edgecolor
newpath 113.28 40.5 moveto
109.7 31.71 105.4 21.16 102.27 13.49 curveto
stroke
0 0 0 edgecolor
newpath 105.41 11.9 moveto
98.39 3.96 lineto
98.92 14.54 lineto
closepath fill
1 setlinewidth
solid
0 0 0 edgecolor
newpath 105.41 11.9 moveto
98.39 3.96 lineto
98.92 14.54 lineto
closepath stroke
grestore
% null6
gsave
0 0 0 nodecolor
120 2 1.8 1.8 ellipse_path fill
1 setlinewidth
filled
0 0 0 nodecolor
120 2 1.8 1.8 ellipse_path stroke
grestore
% 7->null6
gsave
1 setlinewidth
0 0 0 edgecolor
newpath 120 39.91 moveto
120 31.48 120 21.54 120 14.11 curveto
stroke
0 0 0 edgecolor
newpath 123.5 13.94 moveto
120 3.94 lineto
116.5 13.94 lineto
closepath fill
1 setlinewidth
solid
0 0 0 edgecolor
newpath 123.5 13.94 moveto
120 3.94 lineto
116.5 13.94 lineto
closepath stroke
grestore
% null7
gsave
0 0 0 nodecolor
142 2 1.8 1.8 ellipse_path fill
1 setlinewidth
filled
0 0 0 nodecolor
142 2 1.8 1.8 ellipse_path stroke
grestore
% 7->null7
gsave
1 setlinewidth
0 0 0 edgecolor
newpath 126.72 40.5 moveto
130.3 31.71 134.6 21.16 137.73 13.49 curveto
stroke
0 0 0 edgecolor
newpath 141.08 14.54 moveto
141.61 3.96 lineto
134.59 11.9 lineto
closepath fill
1 setlinewidth
solid
0 0 0 edgecolor
newpath 141.08 14.54 moveto
141.61 3.96 lineto
134.59 11.9 lineto
closepath stroke
grestore
% null8
gsave
0 0 0 nodecolor
167 58 1.8 1.8 ellipse_path fill
1 setlinewidth
filled
0 0 0 nodecolor
167 58 1.8 1.8 ellipse_path stroke
grestore
% 6->null8
gsave
1 setlinewidth
0 0 0 edgecolor
newpath 175.34 112.05 moveto
173.29 99 170.51 81.33 168.74 70.05 curveto
stroke
0 0 0 edgecolor
newpath 172.14 69.15 moveto
167.13 59.82 lineto
165.22 70.24 lineto
closepath fill
1 setlinewidth
solid
0 0 0 edgecolor
newpath 172.14 69.15 moveto
167.13 59.82 lineto
165.22 70.24 lineto
closepath stroke
grestore
% null9
gsave
0 0 0 nodecolor
189 58 1.8 1.8 ellipse_path fill
1 setlinewidth
filled
0 0 0 nodecolor
189 58 1.8 1.8 ellipse_path stroke
grestore
% 6->null9
gsave
1 setlinewidth
0 0 0 edgecolor
newpath 180.66 112.05 moveto
182.71 99 185.49 81.33 187.26 70.05 curveto
stroke
0 0 0 edgecolor
newpath 190.78 70.24 moveto
188.87 59.82 lineto
183.86 69.15 lineto
closepath fill
1 setlinewidth
solid
0 0 0 edgecolor
newpath 190.78 70.24 moveto
188.87 59.82 lineto
183.86 69.15 lineto
closepath stroke
grestore
% null10
gsave
0 0 0 nodecolor
211 58 1.8 1.8 ellipse_path fill
1 setlinewidth
filled
0 0 0 nodecolor
211 58 1.8 1.8 ellipse_path stroke
grestore
% 6->null10
gsave
1 setlinewidth
0 0 0 edgecolor
newpath 185.82 112.41 moveto
192.18 98.93 200.94 80.35 206.27 69.03 curveto
stroke
0 0 0 edgecolor
newpath 209.51 70.36 moveto
210.61 59.83 lineto
203.18 67.38 lineto
closepath fill
1 setlinewidth
solid
0 0 0 edgecolor
newpath 209.51 70.36 moveto
210.61 59.83 lineto
203.18 67.38 lineto
closepath stroke
grestore
% null11
gsave
0 0 0 nodecolor
225 130 1.8 1.8 ellipse_path fill
1 setlinewidth
filled
0 0 0 nodecolor
225 130 1.8 1.8 ellipse_path stroke
grestore
% 1->null11
gsave
1 setlinewidth
0 0 0 edgecolor
newpath 261.2 185.29 moveto
254 174.78 244.36 160.61 236 148 curveto
234.42 145.62 232.74 143.04 231.17 140.62 curveto
stroke
0 0 0 edgecolor
newpath 233.94 138.45 moveto
225.59 131.93 lineto
228.05 142.23 lineto
closepath fill
1 setlinewidth
solid
0 0 0 edgecolor
newpath 233.94 138.45 moveto
225.59 131.93 lineto
228.05 142.23 lineto
closepath stroke
grestore
% 2
gsave
1 setlinewidth
0 0 0 nodecolor
272 130 27 18 ellipse_path stroke
0 0 0 nodecolor
14 /Arial set_font
267.5 126.3 moveto 9 (0) alignedtext
grestore
% 1->2
gsave
1 setlinewidth
0 0 0 edgecolor
newpath 272 183.7 moveto
272 175.98 272 166.71 272 158.11 curveto
stroke
0 0 0 edgecolor
newpath 275.5 158.1 moveto
272 148.1 lineto
268.5 158.1 lineto
closepath fill
1 setlinewidth
solid
0 0 0 edgecolor
newpath 275.5 158.1 moveto
272 148.1 lineto
268.5 158.1 lineto
closepath stroke
grestore
% null15
gsave
0 0 0 nodecolor
319 130 1.8 1.8 ellipse_path fill
1 setlinewidth
filled
0 0 0 nodecolor
319 130 1.8 1.8 ellipse_path stroke
grestore
% 1->null15
gsave
1 setlinewidth
0 0 0 edgecolor
newpath 282.8 185.29 moveto
290 174.78 299.64 160.61 308 148 curveto
309.58 145.62 311.26 143.04 312.83 140.62 curveto
stroke
0 0 0 edgecolor
newpath 315.95 142.23 moveto
318.41 131.93 lineto
310.06 138.45 lineto
closepath fill
1 setlinewidth
solid
0 0 0 edgecolor
newpath 315.95 142.23 moveto
318.41 131.93 lineto
310.06 138.45 lineto
closepath stroke
grestore
% null12
gsave
0 0 0 nodecolor
250 58 1.8 1.8 ellipse_path fill
1 setlinewidth
filled
0 0 0 nodecolor
250 58 1.8 1.8 ellipse_path stroke
grestore
% 2->null12
gsave
1 setlinewidth
0 0 0 edgecolor
newpath 266.67 112.05 moveto
262.53 98.85 256.89 80.93 253.35 69.67 curveto
stroke
0 0 0 edgecolor
newpath 256.59 68.31 moveto
250.26 59.82 lineto
249.92 70.41 lineto
closepath fill
1 setlinewidth
solid
0 0 0 edgecolor
newpath 256.59 68.31 moveto
250.26 59.82 lineto
249.92 70.41 lineto
closepath stroke
grestore
% null13
gsave
0 0 0 nodecolor
272 58 1.8 1.8 ellipse_path fill
1 setlinewidth
filled
0 0 0 nodecolor
272 58 1.8 1.8 ellipse_path stroke
grestore
% 2->null13
gsave
1 setlinewidth
0 0 0 edgecolor
newpath 272 111.7 moveto
272 98.63 272 81.11 272 69.93 curveto
stroke
0 0 0 edgecolor
newpath 275.5 69.81 moveto
272 59.81 lineto
268.5 69.81 lineto
closepath fill
1 setlinewidth
solid
0 0 0 edgecolor
newpath 275.5 69.81 moveto
272 59.81 lineto
268.5 69.81 lineto
closepath stroke
grestore
% null14
gsave
0 0 0 nodecolor
294 58 1.8 1.8 ellipse_path fill
1 setlinewidth
filled
0 0 0 nodecolor
294 58 1.8 1.8 ellipse_path stroke
grestore
% 2->null14
gsave
1 setlinewidth
0 0 0 edgecolor
newpath 277.33 112.05 moveto
281.47 98.85 287.11 80.93 290.65 69.67 curveto
stroke
0 0 0 edgecolor
newpath 294.08 70.41 moveto
293.74 59.82 lineto
287.41 68.31 lineto
closepath fill
1 setlinewidth
solid
0 0 0 edgecolor
newpath 294.08 70.41 moveto
293.74 59.82 lineto
287.41 68.31 lineto
closepath stroke
grestore
% 9
gsave
1 setlinewidth
0 0 0 nodecolor
366 130 27 18 ellipse_path stroke
0 0 0 nodecolor
14 /Arial set_font
361.5 126.3 moveto 9 (1) alignedtext
grestore
% 8->9
gsave
1 setlinewidth
0 0 0 edgecolor
newpath 383.43 184.05 moveto
380.8 176.06 377.61 166.33 374.67 157.4 curveto
stroke
0 0 0 edgecolor
newpath 377.96 156.2 moveto
371.52 147.79 lineto
371.31 158.38 lineto
closepath fill
1 setlinewidth
solid
0 0 0 edgecolor
newpath 377.96 156.2 moveto
371.52 147.79 lineto
371.31 158.38 lineto
closepath stroke
grestore
% null21
gsave
0 0 0 nodecolor
413 130 1.8 1.8 ellipse_path fill
1 setlinewidth
filled
0 0 0 nodecolor
413 130 1.8 1.8 ellipse_path stroke
grestore
% 8->null21
gsave
1 setlinewidth
0 0 0 edgecolor
newpath 394.81 184.05 moveto
399.39 170.71 405.62 152.54 409.47 141.3 curveto
stroke
0 0 0 edgecolor
newpath 412.79 142.41 moveto
412.72 131.82 lineto
406.17 140.14 lineto
closepath fill
1 setlinewidth
solid
0 0 0 edgecolor
newpath 412.79 142.41 moveto
412.72 131.82 lineto
406.17 140.14 lineto
closepath stroke
grestore
% null22
gsave
0 0 0 nodecolor
435 130 1.8 1.8 ellipse_path fill
1 setlinewidth
filled
0 0 0 nodecolor
435 130 1.8 1.8 ellipse_path stroke
grestore
% 8->null22
gsave
1 setlinewidth
0 0 0 edgecolor
newpath 399.44 185.12 moveto
408.47 171.37 421.23 151.95 428.76 140.5 curveto
stroke
0 0 0 edgecolor
newpath 431.88 142.12 moveto
434.45 131.84 lineto
426.03 138.28 lineto
closepath fill
1 setlinewidth
solid
0 0 0 edgecolor
newpath 431.88 142.12 moveto
434.45 131.84 lineto
426.03 138.28 lineto
closepath stroke
grestore
% null16
gsave
0 0 0 nodecolor
319 58 1.8 1.8 ellipse_path fill
1 setlinewidth
filled
0 0 0 nodecolor
319 58 1.8 1.8 ellipse_path stroke
grestore
% 9->null16
gsave
1 setlinewidth
0 0 0 edgecolor
newpath 355.2 113.29 moveto
348 102.78 338.36 88.61 330 76 curveto
328.42 73.62 326.74 71.04 325.17 68.62 curveto
stroke
0 0 0 edgecolor
newpath 327.94 66.45 moveto
319.59 59.93 lineto
322.05 70.23 lineto
closepath fill
1 setlinewidth
solid
0 0 0 edgecolor
newpath 327.94 66.45 moveto
319.59 59.93 lineto
322.05 70.23 lineto
closepath stroke
grestore
% 10
gsave
1 setlinewidth
0 0 0 nodecolor
366 58 27 18 ellipse_path stroke
0 0 0 nodecolor
14 /Arial set_font
361.5 54.3 moveto 9 (0) alignedtext
grestore
% 9->10
gsave
1 setlinewidth
0 0 0 edgecolor
newpath 366 111.7 moveto
366 103.98 366 94.71 366 86.11 curveto
stroke
0 0 0 edgecolor
newpath 369.5 86.1 moveto
366 76.1 lineto
362.5 86.1 lineto
closepath fill
1 setlinewidth
solid
0 0 0 edgecolor
newpath 369.5 86.1 moveto
366 76.1 lineto
362.5 86.1 lineto
closepath stroke
grestore
% null20
gsave
0 0 0 nodecolor
413 58 1.8 1.8 ellipse_path fill
1 setlinewidth
filled
0 0 0 nodecolor
413 58 1.8 1.8 ellipse_path stroke
grestore
% 9->null20
gsave
1 setlinewidth
0 0 0 edgecolor
newpath 376.8 113.29 moveto
384 102.78 393.64 88.61 402 76 curveto
403.58 73.62 405.26 71.04 406.83 68.62 curveto
stroke
0 0 0 edgecolor
newpath 409.95 70.23 moveto
412.41 59.93 lineto
404.06 66.45 lineto
closepath fill
1 setlinewidth
solid
0 0 0 edgecolor
newpath 409.95 70.23 moveto
412.41 59.93 lineto
404.06 66.45 lineto
closepath stroke
grestore
% null17
gsave
0 0 0 nodecolor
344 2 1.8 1.8 ellipse_path fill
1 setlinewidth
filled
0 0 0 nodecolor
344 2 1.8 1.8 ellipse_path stroke
grestore
% 10->null17
gsave
1 setlinewidth
0 0 0 edgecolor
newpath 359.28 40.5 moveto
355.7 31.71 351.4 21.16 348.27 13.49 curveto
stroke
0 0 0 edgecolor
newpath 351.41 11.9 moveto
344.39 3.96 lineto
344.92 14.54 lineto
closepath fill
1 setlinewidth
solid
0 0 0 edgecolor
newpath 351.41 11.9 moveto
344.39 3.96 lineto
344.92 14.54 lineto
closepath stroke
grestore
% null18
gsave
0 0 0 nodecolor
366 2 1.8 1.8 ellipse_path fill
1 setlinewidth
filled
0 0 0 nodecolor
366 2 1.8 1.8 ellipse_path stroke
grestore
% 10->null18
gsave
1 setlinewidth
0 0 0 edgecolor
newpath 366 39.91 moveto
366 31.48 366 21.54 366 14.11 curveto
stroke
0 0 0 edgecolor
newpath 369.5 13.94 moveto
366 3.94 lineto
362.5 13.94 lineto
closepath fill
1 setlinewidth
solid
0 0 0 edgecolor
newpath 369.5 13.94 moveto
366 3.94 lineto
362.5 13.94 lineto
closepath stroke
grestore
% null19
gsave
0 0 0 nodecolor
388 2 1.8 1.8 ellipse_path fill
1 setlinewidth
filled
0 0 0 nodecolor
388 2 1.8 1.8 ellipse_path stroke
grestore
% 10->null19
gsave
1 setlinewidth
0 0 0 edgecolor
newpath 372.72 40.5 moveto
376.3 31.71 380.6 21.16 383.73 13.49 curveto
stroke
0 0 0 edgecolor
newpath 387.08 14.54 moveto
387.61 3.96 lineto
380.59 11.9 lineto
closepath fill
1 setlinewidth
solid
0 0 0 edgecolor
newpath 387.08 14.54 moveto
387.61 3.96 lineto
380.59 11.9 lineto
closepath stroke
grestore
endpage
showpage
grestore
%%PageTrailer
%%EndPage: 1
%%Trailer
%%Pages: 1
%%BoundingBox: 36 36 481 336
end
restore
%%EOF
