%!PS-Adobe-3.0
%%Creator: graphviz version 2.36.0 (20140111.2315)
%%Title: BST
%%Pages: (atend)
%%BoundingBox: (atend)
%%EndComments
save
%%BeginProlog
/DotDict 200 dict def
DotDict begin

/setupLatin1 {
mark
/EncodingVector 256 array def
 EncodingVector 0

ISOLatin1Encoding 0 255 getinterval putinterval
EncodingVector 45 /hyphen put

% Set up ISO Latin 1 character encoding
/starnetISO {
        dup dup findfont dup length dict begin
        { 1 index /FID ne { def }{ pop pop } ifelse
        } forall
        /Encoding EncodingVector def
        currentdict end definefont
} def
/Times-Roman starnetISO def
/Times-Italic starnetISO def
/Times-Bold starnetISO def
/Times-BoldItalic starnetISO def
/Helvetica starnetISO def
/Helvetica-Oblique starnetISO def
/Helvetica-Bold starnetISO def
/Helvetica-BoldOblique starnetISO def
/Courier starnetISO def
/Courier-Oblique starnetISO def
/Courier-Bold starnetISO def
/Courier-BoldOblique starnetISO def
cleartomark
} bind def

%%BeginResource: procset graphviz 0 0
/coord-font-family /Times-Roman def
/default-font-family /Times-Roman def
/coordfont coord-font-family findfont 8 scalefont def

/InvScaleFactor 1.0 def
/set_scale {
       dup 1 exch div /InvScaleFactor exch def
       scale
} bind def

% styles
/solid { [] 0 setdash } bind def
/dashed { [9 InvScaleFactor mul dup ] 0 setdash } bind def
/dotted { [1 InvScaleFactor mul 6 InvScaleFactor mul] 0 setdash } bind def
/invis {/fill {newpath} def /stroke {newpath} def /show {pop newpath} def} bind def
/bold { 2 setlinewidth } bind def
/filled { } bind def
/unfilled { } bind def
/rounded { } bind def
/diagonals { } bind def
/tapered { } bind def

% hooks for setting color 
/nodecolor { sethsbcolor } bind def
/edgecolor { sethsbcolor } bind def
/graphcolor { sethsbcolor } bind def
/nopcolor {pop pop pop} bind def

/beginpage {	% i j npages
	/npages exch def
	/j exch def
	/i exch def
	/str 10 string def
	npages 1 gt {
		gsave
			coordfont setfont
			0 0 moveto
			(\() show i str cvs show (,) show j str cvs show (\)) show
		grestore
	} if
} bind def

/set_font {
	findfont exch
	scalefont setfont
} def

% draw text fitted to its expected width
/alignedtext {			% width text
	/text exch def
	/width exch def
	gsave
		width 0 gt {
			[] 0 setdash
			text stringwidth pop width exch sub text length div 0 text ashow
		} if
	grestore
} def

/boxprim {				% xcorner ycorner xsize ysize
		4 2 roll
		moveto
		2 copy
		exch 0 rlineto
		0 exch rlineto
		pop neg 0 rlineto
		closepath
} bind def

/ellipse_path {
	/ry exch def
	/rx exch def
	/y exch def
	/x exch def
	matrix currentmatrix
	newpath
	x y translate
	rx ry scale
	0 0 1 0 360 arc
	setmatrix
} bind def

/endpage { showpage } bind def
/showpage { } def

/layercolorseq
	[	% layer color sequence - darkest to lightest
		[0 0 0]
		[.2 .8 .8]
		[.4 .8 .8]
		[.6 .8 .8]
		[.8 .8 .8]
	]
def

/layerlen layercolorseq length def

/setlayer {/maxlayer exch def /curlayer exch def
	layercolorseq curlayer 1 sub layerlen mod get
	aload pop sethsbcolor
	/nodecolor {nopcolor} def
	/edgecolor {nopcolor} def
	/graphcolor {nopcolor} def
} bind def

/onlayer { curlayer ne {invis} if } def

/onlayers {
	/myupper exch def
	/mylower exch def
	curlayer mylower lt
	curlayer myupper gt
	or
	{invis} if
} def

/curlayer 0 def

%%EndResource
%%EndProlog
%%BeginSetup
14 default-font-family set_font
1 setmiterlimit
% /arrowlength 10 def
% /arrowwidth 5 def

% make sure pdfmark is harmless for PS-interpreters other than Distiller
/pdfmark where {pop} {userdict /pdfmark /cleartomark load put} ifelse
% make '<<' and '>>' safe on PS Level 1 devices
/languagelevel where {pop languagelevel}{1} ifelse
2 lt {
    userdict (<<) cvn ([) cvn load put
    userdict (>>) cvn ([) cvn load put
} if

%%EndSetup
setupLatin1
%%Page: 1 1
%%PageBoundingBox: 36 36 215 408
%%PageOrientation: Portrait
0 0 1 beginpage
gsave
36 36 179 372 boxprim clip newpath
1 1 set_scale 0 rotate 40 40 translate
% 4
gsave
1 setlinewidth
0 0 0 nodecolor
85 346 27 18 ellipse_path stroke
0 0 0 nodecolor
14 /Arial set_font
80.5 342.3 moveto 9 (4) alignedtext
grestore
% 3
gsave
1 setlinewidth
0 0 0 nodecolor
49 274 27 18 ellipse_path stroke
0 0 0 nodecolor
14 /Arial set_font
44.5 270.3 moveto 9 (3) alignedtext
grestore
% 4->3
gsave
1 setlinewidth
0 0 0 edgecolor
newpath 76.65 328.76 moveto
72.29 320.28 66.85 309.71 61.96 300.2 curveto
stroke
0 0 0 edgecolor
newpath 64.99 298.44 moveto
57.3 291.15 lineto
58.77 301.64 lineto
closepath fill
1 setlinewidth
solid
0 0 0 edgecolor
newpath 64.99 298.44 moveto
57.3 291.15 lineto
58.77 301.64 lineto
closepath stroke
grestore
% 5
gsave
1 setlinewidth
0 0 0 nodecolor
121 274 27 18 ellipse_path stroke
0 0 0 nodecolor
14 /Arial set_font
116.5 270.3 moveto 9 (5) alignedtext
grestore
% 4->5
gsave
1 setlinewidth
0 0 0 edgecolor
newpath 93.35 328.76 moveto
97.71 320.28 103.15 309.71 108.04 300.2 curveto
stroke
0 0 0 edgecolor
newpath 111.23 301.64 moveto
112.7 291.15 lineto
105.01 298.44 lineto
closepath fill
1 setlinewidth
solid
0 0 0 edgecolor
newpath 111.23 301.64 moveto
112.7 291.15 lineto
105.01 298.44 lineto
closepath stroke
grestore
% 2
gsave
1 setlinewidth
0 0 0 nodecolor
27 202 27 18 ellipse_path stroke
0 0 0 nodecolor
14 /Arial set_font
22.5 198.3 moveto 9 (2) alignedtext
grestore
% 3->2
gsave
1 setlinewidth
0 0 0 edgecolor
newpath 43.67 256.05 moveto
41.16 248.06 38.1 238.33 35.3 229.4 curveto
stroke
0 0 0 edgecolor
newpath 38.61 228.28 moveto
32.28 219.79 lineto
31.94 230.38 lineto
closepath fill
1 setlinewidth
solid
0 0 0 edgecolor
newpath 38.61 228.28 moveto
32.28 219.79 lineto
31.94 230.38 lineto
closepath stroke
grestore
% null2
gsave
0 0 0 nodecolor
74 202 1.8 1.8 ellipse_path fill
1 setlinewidth
filled
0 0 0 nodecolor
74 202 1.8 1.8 ellipse_path stroke
grestore
% 3->null2
gsave
1 setlinewidth
0 0 0 edgecolor
newpath 54.92 256.41 moveto
59.69 243.07 66.23 224.75 70.28 213.4 curveto
stroke
0 0 0 edgecolor
newpath 73.64 214.42 moveto
73.71 203.83 lineto
67.05 212.07 lineto
closepath fill
1 setlinewidth
solid
0 0 0 edgecolor
newpath 73.64 214.42 moveto
73.71 203.83 lineto
67.05 212.07 lineto
closepath stroke
grestore
% null0
gsave
0 0 0 nodecolor
16 130 1.8 1.8 ellipse_path fill
1 setlinewidth
filled
0 0 0 nodecolor
16 130 1.8 1.8 ellipse_path stroke
grestore
% 2->null0
gsave
1 setlinewidth
0 0 0 edgecolor
newpath 24.34 184.05 moveto
22.29 171 19.51 153.33 17.74 142.05 curveto
stroke
0 0 0 edgecolor
newpath 21.14 141.15 moveto
16.13 131.82 lineto
14.22 142.24 lineto
closepath fill
1 setlinewidth
solid
0 0 0 edgecolor
newpath 21.14 141.15 moveto
16.13 131.82 lineto
14.22 142.24 lineto
closepath stroke
grestore
% null1
gsave
0 0 0 nodecolor
38 130 1.8 1.8 ellipse_path fill
1 setlinewidth
filled
0 0 0 nodecolor
38 130 1.8 1.8 ellipse_path stroke
grestore
% 2->null1
gsave
1 setlinewidth
0 0 0 edgecolor
newpath 29.66 184.05 moveto
31.71 171 34.49 153.33 36.26 142.05 curveto
stroke
0 0 0 edgecolor
newpath 39.78 142.24 moveto
37.87 131.82 lineto
32.86 141.15 lineto
closepath fill
1 setlinewidth
solid
0 0 0 edgecolor
newpath 39.78 142.24 moveto
37.87 131.82 lineto
32.86 141.15 lineto
closepath stroke
grestore
% null3
gsave
0 0 0 nodecolor
97 202 1.8 1.8 ellipse_path fill
1 setlinewidth
filled
0 0 0 nodecolor
97 202 1.8 1.8 ellipse_path stroke
grestore
% 5->null3
gsave
1 setlinewidth
0 0 0 edgecolor
newpath 115.19 256.05 moveto
110.61 242.71 104.38 224.54 100.53 213.3 curveto
stroke
0 0 0 edgecolor
newpath 103.83 212.14 moveto
97.28 203.82 lineto
97.21 214.41 lineto
closepath fill
1 setlinewidth
solid
0 0 0 edgecolor
newpath 103.83 212.14 moveto
97.28 203.82 lineto
97.21 214.41 lineto
closepath stroke
grestore
% 10
gsave
1 setlinewidth
0 0 0 nodecolor
144 202 27 18 ellipse_path stroke
0 0 0 nodecolor
14 /Arial set_font
135.5 198.3 moveto 17 (10) alignedtext
grestore
% 5->10
gsave
1 setlinewidth
0 0 0 edgecolor
newpath 126.57 256.05 moveto
129.2 248.06 132.39 238.33 135.33 229.4 curveto
stroke
0 0 0 edgecolor
newpath 138.69 230.38 moveto
138.48 219.79 lineto
132.04 228.2 lineto
closepath fill
1 setlinewidth
solid
0 0 0 edgecolor
newpath 138.69 230.38 moveto
138.48 219.79 lineto
132.04 228.2 lineto
closepath stroke
grestore
% 8
gsave
1 setlinewidth
0 0 0 nodecolor
120 130 27 18 ellipse_path stroke
0 0 0 nodecolor
14 /Arial set_font
115.5 126.3 moveto 9 (8) alignedtext
grestore
% 10->8
gsave
1 setlinewidth
0 0 0 edgecolor
newpath 138.19 184.05 moveto
135.45 176.06 132.11 166.33 129.05 157.4 curveto
stroke
0 0 0 edgecolor
newpath 132.31 156.11 moveto
125.76 147.79 lineto
125.69 158.38 lineto
closepath fill
1 setlinewidth
solid
0 0 0 edgecolor
newpath 132.31 156.11 moveto
125.76 147.79 lineto
125.69 158.38 lineto
closepath stroke
grestore
% null7
gsave
0 0 0 nodecolor
167 130 1.8 1.8 ellipse_path fill
1 setlinewidth
filled
0 0 0 nodecolor
167 130 1.8 1.8 ellipse_path stroke
grestore
% 10->null7
gsave
1 setlinewidth
0 0 0 edgecolor
newpath 149.57 184.05 moveto
153.91 170.85 159.79 152.93 163.49 141.67 curveto
stroke
0 0 0 edgecolor
newpath 166.94 142.41 moveto
166.73 131.82 lineto
160.29 140.22 lineto
closepath fill
1 setlinewidth
solid
0 0 0 edgecolor
newpath 166.94 142.41 moveto
166.73 131.82 lineto
160.29 140.22 lineto
closepath stroke
grestore
% 7
gsave
1 setlinewidth
0 0 0 nodecolor
96 58 27 18 ellipse_path stroke
0 0 0 nodecolor
14 /Arial set_font
91.5 54.3 moveto 9 (7) alignedtext
grestore
% 8->7
gsave
1 setlinewidth
0 0 0 edgecolor
newpath 114.19 112.05 moveto
111.45 104.06 108.11 94.33 105.05 85.4 curveto
stroke
0 0 0 edgecolor
newpath 108.31 84.11 moveto
101.76 75.79 lineto
101.69 86.38 lineto
closepath fill
1 setlinewidth
solid
0 0 0 edgecolor
newpath 108.31 84.11 moveto
101.76 75.79 lineto
101.69 86.38 lineto
closepath stroke
grestore
% null6
gsave
0 0 0 nodecolor
143 58 1.8 1.8 ellipse_path fill
1 setlinewidth
filled
0 0 0 nodecolor
143 58 1.8 1.8 ellipse_path stroke
grestore
% 8->null6
gsave
1 setlinewidth
0 0 0 edgecolor
newpath 125.57 112.05 moveto
129.91 98.85 135.79 80.93 139.49 69.67 curveto
stroke
0 0 0 edgecolor
newpath 142.94 70.41 moveto
142.73 59.82 lineto
136.29 68.22 lineto
closepath fill
1 setlinewidth
solid
0 0 0 edgecolor
newpath 142.94 70.41 moveto
142.73 59.82 lineto
136.29 68.22 lineto
closepath stroke
grestore
% null4
gsave
0 0 0 nodecolor
85 2 1.8 1.8 ellipse_path fill
1 setlinewidth
filled
0 0 0 nodecolor
85 2 1.8 1.8 ellipse_path stroke
grestore
% 7->null4
gsave
1 setlinewidth
0 0 0 edgecolor
newpath 92.52 39.91 moveto
90.78 31.37 88.73 21.29 87.2 13.82 curveto
stroke
0 0 0 edgecolor
newpath 90.62 13.04 moveto
85.19 3.94 lineto
83.76 14.43 lineto
closepath fill
1 setlinewidth
solid
0 0 0 edgecolor
newpath 90.62 13.04 moveto
85.19 3.94 lineto
83.76 14.43 lineto
closepath stroke
grestore
% null5
gsave
0 0 0 nodecolor
107 2 1.8 1.8 ellipse_path fill
1 setlinewidth
filled
0 0 0 nodecolor
107 2 1.8 1.8 ellipse_path stroke
grestore
% 7->null5
gsave
1 setlinewidth
0 0 0 edgecolor
newpath 99.48 39.91 moveto
101.22 31.37 103.27 21.29 104.8 13.82 curveto
stroke
0 0 0 edgecolor
newpath 108.24 14.43 moveto
106.81 3.94 lineto
101.38 13.04 lineto
closepath fill
1 setlinewidth
solid
0 0 0 edgecolor
newpath 108.24 14.43 moveto
106.81 3.94 lineto
101.38 13.04 lineto
closepath stroke
grestore
endpage
showpage
grestore
%%PageTrailer
%%EndPage: 1
%%Trailer
%%Pages: 1
%%BoundingBox: 36 36 215 408
end
restore
%%EOF
